0:0:0:0:0:0:0:1 - - [23/Apr/2020:13:15:58 -0500] "-" 400 -
0:0:0:0:0:0:0:1 - - [23/Apr/2020:13:15:58 -0500] "-" 400 -
0:0:0:0:0:0:0:1 - - [23/Apr/2020:13:15:58 -0500] "-" 400 -
0:0:0:0:0:0:0:1 - - [23/Apr/2020:13:15:58 -0500] "-" 400 -
0:0:0:0:0:0:0:1 - - [23/Apr/2020:13:16:01 -0500] "-" 400 -
0:0:0:0:0:0:0:1 - - [23/Apr/2020:13:16:01 -0500] "-" 400 -
0:0:0:0:0:0:0:1 - - [23/Apr/2020:13:16:01 -0500] "GET /cas HTTP/1.1" 404 640
0:0:0:0:0:0:0:1 - - [23/Apr/2020:13:16:02 -0500] "GET /favicon.ico HTTP/1.1" 200 21630
0:0:0:0:0:0:0:1 - - [23/Apr/2020:13:16:26 -0500] "-" 400 -
0:0:0:0:0:0:0:1 - - [23/Apr/2020:13:16:26 -0500] "GET /cas HTTP/1.1" 404 640
0:0:0:0:0:0:0:1 - - [23/Apr/2020:13:16:39 -0500] "-" 400 -
0:0:0:0:0:0:0:1 - - [23/Apr/2020:13:16:39 -0500] "GET /cas HTTP/1.1" 302 -
0:0:0:0:0:0:0:1 - - [23/Apr/2020:13:16:40 -0500] "GET /cas/ HTTP/1.1" 302 -
0:0:0:0:0:0:0:1 - - [23/Apr/2020:13:16:42 -0500] "GET /cas/login HTTP/1.1" 200 12888
0:0:0:0:0:0:0:1 - - [23/Apr/2020:13:16:42 -0500] "-" 400 -
0:0:0:0:0:0:0:1 - - [23/Apr/2020:13:16:42 -0500] "-" 400 -
0:0:0:0:0:0:0:1 - - [23/Apr/2020:13:16:42 -0500] "-" 400 -
0:0:0:0:0:0:0:1 - - [23/Apr/2020:13:16:42 -0500] "-" 400 -
0:0:0:0:0:0:0:1 - - [23/Apr/2020:13:16:42 -0500] "-" 400 -
0:0:0:0:0:0:0:1 - - [23/Apr/2020:13:16:42 -0500] "-" 400 -
0:0:0:0:0:0:0:1 - - [23/Apr/2020:13:16:42 -0500] "-" 400 -
0:0:0:0:0:0:0:1 - - [23/Apr/2020:13:16:42 -0500] "-" 400 -
0:0:0:0:0:0:0:1 - - [23/Apr/2020:13:16:42 -0500] "-" 400 -
0:0:0:0:0:0:0:1 - - [23/Apr/2020:13:16:42 -0500] "-" 400 -
0:0:0:0:0:0:0:1 - - [23/Apr/2020:13:16:42 -0500] "-" 400 -
0:0:0:0:0:0:0:1 - - [23/Apr/2020:13:16:42 -0500] "-" 400 -
0:0:0:0:0:0:0:1 - - [23/Apr/2020:13:16:42 -0500] "-" 400 -
0:0:0:0:0:0:0:1 - - [23/Apr/2020:13:16:42 -0500] "-" 400 -
0:0:0:0:0:0:0:1 - - [23/Apr/2020:13:16:42 -0500] "GET /cas/webjars/font-awesome/5.0.13/web-fonts-with-css/css/fontawesome-all.min.css HTTP/1.1" 200 41065
0:0:0:0:0:0:0:1 - - [23/Apr/2020:13:16:42 -0500] "GET /cas/webjars/lato/0.3.0/css/lato.min.css HTTP/1.1" 200 8916
0:0:0:0:0:0:0:1 - - [23/Apr/2020:13:16:42 -0500] "GET /cas/webjars/jquery/3.3.1/jquery.min.js HTTP/1.1" 200 86962
0:0:0:0:0:0:0:1 - - [23/Apr/2020:13:16:42 -0500] "GET /cas/webjars/headjs/1.0.3/head.min.js HTTP/1.1" 200 9680
0:0:0:0:0:0:0:1 - - [23/Apr/2020:13:16:42 -0500] "GET /cas/webjars/bootstrap/4.1.0/js/bootstrap.bundle.min.js HTTP/1.1" 200 70808
0:0:0:0:0:0:0:1 - - [23/Apr/2020:13:16:42 -0500] "GET /cas/css/cas.css HTTP/1.1" 200 255344
0:0:0:0:0:0:0:1 - - [23/Apr/2020:13:16:42 -0500] "GET /cas/webjars/jquery-cookie/1.4.1-1/jquery.cookie.js HTTP/1.1" 200 3121
0:0:0:0:0:0:0:1 - - [23/Apr/2020:13:16:42 -0500] "GET /cas/webjars/jquery-ui/1.12.1/jquery-ui.min.js HTTP/1.1" 200 253669
0:0:0:0:0:0:0:1 - - [23/Apr/2020:13:16:42 -0500] "GET /cas/webjars/store.js/1.3.17/store.min.js HTTP/1.1" 200 2575
0:0:0:0:0:0:0:1 - - [23/Apr/2020:13:16:42 -0500] "GET /cas/js/cas.js HTTP/1.1" 200 4253
0:0:0:0:0:0:0:1 - - [23/Apr/2020:13:16:42 -0500] "GET /cas/webjars/zxcvbn/4.3.0/zxcvbn.js HTTP/1.1" 200 821604
0:0:0:0:0:0:0:1 - - [23/Apr/2020:13:16:42 -0500] "GET /cas/webjars/font-awesome/5.0.13/web-fonts-with-css/webfonts/fa-solid-900.woff2 HTTP/1.1" 200 50372
0:0:0:0:0:0:0:1 - - [23/Apr/2020:13:16:42 -0500] "GET /cas/webjars/font-awesome/5.0.13/web-fonts-with-css/webfonts/fa-regular-400.woff2 HTTP/1.1" 200 12188
0:0:0:0:0:0:0:1 - - [23/Apr/2020:13:16:43 -0500] "GET /cas/favicon.ico HTTP/1.1" 200 29582
0:0:0:0:0:0:0:1 - - [23/Apr/2020:13:16:49 -0500] "POST /cas/login HTTP/1.1" 401 13108
0:0:0:0:0:0:0:1 - - [23/Apr/2020:13:16:49 -0500] "GET /cas/webjars/lato/0.3.0/css/lato.min.css HTTP/1.1" 200 8916
0:0:0:0:0:0:0:1 - - [23/Apr/2020:13:16:49 -0500] "GET /cas/webjars/font-awesome/5.0.13/web-fonts-with-css/css/fontawesome-all.min.css HTTP/1.1" 200 41065
0:0:0:0:0:0:0:1 - - [23/Apr/2020:13:16:49 -0500] "GET /cas/css/cas.css HTTP/1.1" 200 255344
0:0:0:0:0:0:0:1 - - [23/Apr/2020:13:16:49 -0500] "GET /cas/webjars/font-awesome/5.0.13/web-fonts-with-css/webfonts/fa-solid-900.woff2 HTTP/1.1" 200 50372
0:0:0:0:0:0:0:1 - - [23/Apr/2020:13:16:49 -0500] "GET /cas/webjars/font-awesome/5.0.13/web-fonts-with-css/webfonts/fa-regular-400.woff2 HTTP/1.1" 200 12188
0:0:0:0:0:0:0:1 - - [23/Apr/2020:13:17:16 -0500] "POST /cas/login HTTP/1.1" 401 13108
0:0:0:0:0:0:0:1 - - [23/Apr/2020:13:17:16 -0500] "GET /cas/webjars/font-awesome/5.0.13/web-fonts-with-css/css/fontawesome-all.min.css HTTP/1.1" 200 41065
0:0:0:0:0:0:0:1 - - [23/Apr/2020:13:17:16 -0500] "GET /cas/webjars/lato/0.3.0/css/lato.min.css HTTP/1.1" 200 8916
0:0:0:0:0:0:0:1 - - [23/Apr/2020:13:17:16 -0500] "GET /cas/css/cas.css HTTP/1.1" 200 255344
0:0:0:0:0:0:0:1 - - [23/Apr/2020:13:17:16 -0500] "GET /cas/webjars/font-awesome/5.0.13/web-fonts-with-css/webfonts/fa-solid-900.woff2 HTTP/1.1" 200 50372
0:0:0:0:0:0:0:1 - - [23/Apr/2020:13:17:16 -0500] "GET /cas/webjars/font-awesome/5.0.13/web-fonts-with-css/webfonts/fa-regular-400.woff2 HTTP/1.1" 200 12188
0:0:0:0:0:0:0:1 - - [23/Apr/2020:13:17:19 -0500] "POST /cas/login HTTP/1.1" 401 13136
0:0:0:0:0:0:0:1 - - [23/Apr/2020:13:17:19 -0500] "GET /cas/webjars/lato/0.3.0/css/lato.min.css HTTP/1.1" 200 8916
0:0:0:0:0:0:0:1 - - [23/Apr/2020:13:17:19 -0500] "GET /cas/webjars/font-awesome/5.0.13/web-fonts-with-css/css/fontawesome-all.min.css HTTP/1.1" 200 41065
0:0:0:0:0:0:0:1 - - [23/Apr/2020:13:17:19 -0500] "GET /cas/css/cas.css HTTP/1.1" 200 255344
0:0:0:0:0:0:0:1 - - [23/Apr/2020:13:17:19 -0500] "GET /cas/webjars/font-awesome/5.0.13/web-fonts-with-css/webfonts/fa-solid-900.woff2 HTTP/1.1" 200 50372
0:0:0:0:0:0:0:1 - - [23/Apr/2020:13:17:20 -0500] "GET /cas/webjars/font-awesome/5.0.13/web-fonts-with-css/webfonts/fa-regular-400.woff2 HTTP/1.1" 200 12188
0:0:0:0:0:0:0:1 - - [23/Apr/2020:13:18:13 -0500] "GET /cas/login HTTP/1.1" 200 12888
0:0:0:0:0:0:0:1 - - [23/Apr/2020:13:18:13 -0500] "-" 400 -
0:0:0:0:0:0:0:1 - - [23/Apr/2020:13:18:13 -0500] "-" 400 -
0:0:0:0:0:0:0:1 - - [23/Apr/2020:13:18:13 -0500] "-" 400 -
0:0:0:0:0:0:0:1 - - [23/Apr/2020:13:18:13 -0500] "-" 400 -
0:0:0:0:0:0:0:1 - - [23/Apr/2020:13:18:13 -0500] "-" 400 -
0:0:0:0:0:0:0:1 - - [23/Apr/2020:13:18:13 -0500] "-" 400 -
0:0:0:0:0:0:0:1 - - [23/Apr/2020:13:18:13 -0500] "-" 400 -
0:0:0:0:0:0:0:1 - - [23/Apr/2020:13:18:13 -0500] "-" 400 -
0:0:0:0:0:0:0:1 - - [23/Apr/2020:13:18:13 -0500] "-" 400 -
0:0:0:0:0:0:0:1 - - [23/Apr/2020:13:18:13 -0500] "-" 400 -
0:0:0:0:0:0:0:1 - - [23/Apr/2020:13:18:13 -0500] "GET /cas/webjars/font-awesome/5.0.13/web-fonts-with-css/css/fontawesome-all.min.css HTTP/1.1" 200 41065
0:0:0:0:0:0:0:1 - - [23/Apr/2020:13:18:13 -0500] "GET /cas/webjars/bootstrap/4.1.0/js/bootstrap.bundle.min.js HTTP/1.1" 200 70808
0:0:0:0:0:0:0:1 - - [23/Apr/2020:13:18:13 -0500] "GET /cas/webjars/headjs/1.0.3/head.min.js HTTP/1.1" 200 9680
0:0:0:0:0:0:0:1 - - [23/Apr/2020:13:18:13 -0500] "GET /cas/webjars/jquery-cookie/1.4.1-1/jquery.cookie.js HTTP/1.1" 200 3121
0:0:0:0:0:0:0:1 - - [23/Apr/2020:13:18:13 -0500] "GET /cas/webjars/lato/0.3.0/css/lato.min.css HTTP/1.1" 200 8916
0:0:0:0:0:0:0:1 - - [23/Apr/2020:13:18:13 -0500] "GET /cas/webjars/jquery-ui/1.12.1/jquery-ui.min.js HTTP/1.1" 200 253669
0:0:0:0:0:0:0:1 - - [23/Apr/2020:13:18:13 -0500] "GET /cas/webjars/jquery/3.3.1/jquery.min.js HTTP/1.1" 200 86962
0:0:0:0:0:0:0:1 - - [23/Apr/2020:13:18:13 -0500] "GET /cas/webjars/store.js/1.3.17/store.min.js HTTP/1.1" 200 2575
0:0:0:0:0:0:0:1 - - [23/Apr/2020:13:18:13 -0500] "GET /cas/js/cas.js HTTP/1.1" 200 4253
0:0:0:0:0:0:0:1 - - [23/Apr/2020:13:18:13 -0500] "GET /cas/css/cas.css HTTP/1.1" 200 255344
0:0:0:0:0:0:0:1 - - [23/Apr/2020:13:18:13 -0500] "GET /cas/webjars/zxcvbn/4.3.0/zxcvbn.js HTTP/1.1" 200 821604
0:0:0:0:0:0:0:1 - - [23/Apr/2020:13:18:13 -0500] "GET /cas/webjars/font-awesome/5.0.13/web-fonts-with-css/webfonts/fa-solid-900.woff2 HTTP/1.1" 200 50372
0:0:0:0:0:0:0:1 - - [23/Apr/2020:13:18:13 -0500] "GET /cas/webjars/font-awesome/5.0.13/web-fonts-with-css/webfonts/fa-regular-400.woff2 HTTP/1.1" 200 12188
